Checkers_Memory/Tanveer/mem_top.vcd
$date
	Sat Apr  6 12:49:01 2019
$end
$version
	Icarus Verilog
$end
$timescale
	1ps
$end
$scope module memtb $end
$var wire 8 ! dout [7:0] $end
$var reg 12 " add [11:0] $end
$var reg 1 # cen $end
$var reg 1 $ clk $end
$var reg 8 % din [7:0] $end
$var reg 1 & rd $end
$var reg 1 ' rst $end
$var reg 1 ( wr $end
$var real 1 ) delay $end
$scope module uut $end
$var wire 12 * add [11:0] $end
$var wire 1 # cen $end
$var wire 1 $ clk $end
$var wire 8 + din [7:0] $end
$var wire 1 & rd $end
$var wire 1 ' rst $end
$var wire 1 ( wr $end
$var reg 8 , dout [7:0] $end
$var reg 1 - read $end
$var reg 12 . tempadd [11:0] $end
$var reg 8 / tempdata [7:0] $end
$var reg 8 0 wr_chk [7:0] $end
$var reg 1 1 write $end
$var integer 32 2 i [31:0] $end
$var integer 32 3 j [31:0] $end
$var integer 32 4 t [31:0] $end
$var integer 32 5 timep1 [31:0] $end
$var integer 32 6 timep2 [31:0] $end
$var real 1 7 vdd $end
$var real 1 8 vss $end
$upscope $end
$upscope $end
$enddefinitions $end
#0
$dumpvars
r0 8
r1.8 7
bx 6
bx 5
bx 4
b10000000000 3
b100 2
01
bx 0
bx /
bx .
0-
bx ,
bx +
bx *
r500 )
x(
1'
x&
bx %
0$
0#
bx "
bx !
$end
#500000
b111110100 5
1$
#1000000
0$
b10101010 %
b10101010 +
b1010101010 "
b1010101010 *
1(
0&
0'
#1500000
b10101010 /
b1010101010 .
11
b1111101000 4
b10111011100 6
1$
#2000000
0$
#2500000
b100111000100 5
01
b10101010 0
1$
#3000000
0$
b11101010 %
b11101010 +
b11011001010 "
b11011001010 *
#3500000
b11101010 /
b11011001010 .
11
b110110101100 6
1$
#4000000
0$
#4500000
b1000110010100 5
01
b11101010 0
1$
#5000000
0$
1#
#5010000
0#
#5500000
b10111010 /
b101100101010 .
11
b1010101111100 6
1$
b10111010 %
b10111010 +
b101100101010 "
b101100101010 *
#6000000
0$
#6500000
b1100101100100 5
01
b10111010 0
1$
#7000000
0$
#7500000
b11111010 /
b101110111010 .
11
b1110101001100 6
1$
b11111010 %
b11111010 +
b101110111010 "
b101110111010 *
#8000000
0$
#8500000
b11101110 /
b111010101010 .
b10000100110100 5
01
b11111010 0
1$
b11101110 %
b11101110 +
b111010101010 "
b111010101010 *
#9000000
0$
#9500000
11
b10010100011100 6
b11101110 0
1$
#10000000
0$
#10500000
b11111110 /
b111110101110 .
b10100100000100 5
01
1$
b11111110 %
b11111110 +
b111110101110 "
b111110101110 *
#11000000
0$
#11500000
b10111011 /
b111010101000 .
11
b10110011101100 6
b11111110 0
1$
b10111011 %
b10111011 +
b111010101000 "
b111010101000 *
#12000000
0$
#12500000
b11000011010100 5
01
b10111011 0
1$
#12700000
bx %
bx +
b11011001010 "
b11011001010 *
0(
1&
#13000000
0$
#13500000
b11011001010 .
1-
b11010010111100 6
1$
#14000000
0$
#14500000
b11100010100100 5
0-
b11101010 !
b11101010 ,
1$
#15000000
0$
#15200000
b101100101010 "
b101100101010 *
#15500000
b101100101010 .
1-
b11110010001100 6
1$
#16000000
0$
#16500000
b100000001110100 5
0-
b10111010 !
b10111010 ,
1$
#17000000
0$
#17200000
b101110111010 "
b101110111010 *
#17500000
b101110111010 .
1-
b100010001011100 6
1$
#18000000
0$
#18500000
b100100001000100 5
0-
b11111010 !
b11111010 ,
1$
#19000000
0$
#19200000
b111010101010 "
b111010101010 *
#19500000
b111010101010 .
1-
b100110000101100 6
1$
#20000000
bx !
bx ,
0$
1#
#20010000
0#
#20500000
b101000000010100 5
0-
b11101110 !
b11101110 ,
1$
#21000000
0$
#21200000
b111110101110 "
b111110101110 *
#21500000
b111110101110 .
1-
b101001111111100 6
1$
#22000000
0$
#22500000
b101011111100100 5
0-
b11111110 !
b11111110 ,
1$
#23000000
0$
#23500000
1-
b101101111001100 6
1$
#23700000
b111010101000 "
b111010101000 *
#24000000
0$
#24500000
b111010101000 .
b101111110110100 5
0-
1$
#24700000
b101100101010 "
b101100101010 *
#25000000
0$
#25500000
b101100101010 .
1-
b110001110011100 6
b10111011 !
b10111011 ,
1$
#25700000
b111110101101 "
b111110101101 *
#25710000
bx !
bx ,
1#
#26000000
0$
#26500000
b111110101101 .
b110011110000100 5
0-
b10111010 !
b10111010 ,
1$
#27000000
0$
#27500000
1-
b110101101101100 6
b0 !
b0 ,
1$
#27710000
b11111110 %
b11111110 +
b111110101110 "
b111110101110 *
1(
0&
#28000000
0$
#28500000
b11111110 /
b111110101110 .
b110111101010100 5
11
1$
#29000000
0$
#29500000
01
b111001100111100 6
b11111110 0
1$
#29710000
b10111010 %
b10111010 +
b111010101000 "
b111010101000 *
#30000000
0$
#30500000
b10111010 /
b111010101000 .
b111011100100100 5
11
1$
#31000000
0$
#31500000
01
b111101100001100 6
b10111010 0
1$
#31710000
b111010101010 "
b111010101010 *
0(
1&
#32000000
0$
#32500000
b111010101010 .
b111111011110100 5
0-
1$
#33000000
0$
#33500000
1-
b1000001011011100 6
b11101110 !
b11101110 ,
1$
#33710000
b111110101110 "
b111110101110 *
#33720000
0#
#33820000
b10101010 %
b10101010 +
b1010101010 "
b1010101010 *
1(
0&
#34000000
0$
#34020000
b11101010 %
b11101010 +
b11011001010 "
b11011001010 *
#34270000
b10111010 %
b10111010 +
b101100101010 "
b101100101010 *
#34470000
b11111010 %
b11111010 +
b101110111010 "
b101110111010 *
#34480000
bx !
bx ,
1#
#34500000
b11111010 /
b101110111010 .
b1000011011000100 5
11
b11101110 !
b11101110 ,
1$
#34530000
0#
#34630000
b11101110 %
b11101110 +
b111010101010 "
b111010101010 *
#34830000
b11111110 %
b11111110 +
b111110101110 "
b111110101110 *
#34870000
b10111011 %
b10111011 +
b111010101000 "
b111010101000 *
#34990000
bx %
bx +
b11011001010 "
b11011001010 *
0(
1&
#35000000
0$
#35240000
b101100101010 "
b101100101010 *
#35440000
b101110111010 "
b101110111010 *
#35450000
bx !
bx ,
1#
#35500000
0-
b1000101010101100 6
b11111010 0
0#
1$
#35700000
b111010101010 "
b111010101010 *
#35900000
b111110101110 "
b111110101110 *
#36000000
0$
#36150000
r1.7 7
b111010101000 "
b111010101000 *
#36500000
b1000111010010100 5
b11111010 !
b11111010 ,
1$
#37000000
0$
#37500000
b1001001001111100 6
1$
#38000000
0$
#38150000
b10101010 %
b10101010 +
b11011001010 "
b11011001010 *
1(
0&
#38500000
b1001011001100100 5
1$
#39000000
0$
#39500000
b1001101001001100 6
1$
#40000000
0$
#40500000
b1001111000110100 5
1$
#40650000
r1.8 7
r100 )
b10111010 %
b10111010 +
b101100101010 "
b101100101010 *
#40850000
bx %
bx +
b111010101010 "
b111010101010 *
0(
1&
#41000000
0$
#41050000
b111110101110 "
b111110101110 *
#41100000
b1001011000 4
b1010000010001100 6
1$
#41200000
0$
#41300000
b1010000101010100 5
1$
b111010101000 "
b111010101000 *
#41400000
0$
#41500000
b11001000 4
b1010001000011100 6
1$
#41600000
0$
#41700000
b1010001011100100 5
1$
#41800000
0$
#41900000
b1010001110101100 6
1$
#42000000
0$
#42100000
b1010010001110100 5
1$
#42200000
0$
#42300000
b1010010100111100 6
1$
#42400000
0$
#42500000
b1010011000000100 5
1$
#42600000
0$
#42700000
b1010011011001100 6
1$
#42800000
0$
#42900000
b1010011110010100 5
1$
#43000000
0$
#43100000
b1010100001011100 6
1$
