Checkers_Memory/Pratham/memory.vcd
$date
	Wed Apr  3 11:01:32 2019
$end
$version
	Icarus Verilog
$end
$timescale
	1ps
$end
$scope module memtb $end
$var wire 8 ! dout [7:0] $end
$var reg 12 " add [11:0] $end
$var reg 1 # cen $end
$var reg 1 $ clk $end
$var reg 8 % din [7:0] $end
$var reg 1 & rd $end
$var reg 1 ' rst $end
$var reg 1 ( wr $end
$scope module uut $end
$var wire 12 ) add [11:0] $end
$var wire 1 # cen $end
$var wire 1 $ clk $end
$var wire 8 * din [7:0] $end
$var wire 1 & rd $end
$var wire 1 ' rst $end
$var wire 1 ( wr $end
$var reg 2 + bank [1:0] $end
$var reg 8 , dout [7:0] $end
$var reg 1 - readStatus $end
$var reg 1 . status $end
$var reg 12 / temp_address [11:0] $end
$var reg 8 0 temp_data [7:0] $end
$var reg 8 1 wr_chk [7:0] $end
$var reg 1 2 writeStatus $end
$var integer 32 3 i [31:0] $end
$var integer 32 4 j [31:0] $end
$var real 1 5 vdd $end
$var real 1 6 vss $end
$scope task read $end
$var reg 12 7 address [11:0] $end
$upscope $end
$scope task write $end
$var reg 12 8 address [11:0] $end
$var reg 8 9 datain [7:0] $end
$upscope $end
$upscope $end
$upscope $end
$enddefinitions $end
#0
$dumpvars
bx 9
bx 8
bx 7
r0 6
r1.8 5
bx 4
bx 3
02
bx 1
bx 0
bx /
0.
0-
bx ,
bx +
bx *
bx )
x(
1'
x&
bx %
0$
0#
bx "
bx !
$end
#100000
b10101010 %
b10101010 *
b1010101010 "
b1010101010 )
1(
0&
0'
#500000
12
b0 +
1$
#1000000
0$
#1500000
b1010101010 /
b10101010 0
b10101010 9
b1010101010 8
02
1$
#2000000
0$
#2100000
b11101010 %
b11101010 *
b11011001010 "
b11011001010 )
#2500000
12
b1 +
b10101010 1
1$
#3000000
0$
#3500000
b11011001010 /
b11101010 0
b11101010 9
b11011001010 8
02
1$
#4000000
0$
#4500000
12
b11101010 1
1$
#4600000
b10111010 %
b10111010 *
b101100101010 "
b101100101010 )
#5000000
0$
#5500000
b101100101010 /
b10111010 0
b10111010 9
b101100101010 8
02
b10 +
1$
#6000000
0$
#6500000
12
b10111010 1
1$
#6600000
b11111010 %
b11111010 *
b101110111010 "
b101110111010 )
#7000000
0$
#7500000
b101110111010 /
b11111010 0
b11111010 9
b101110111010 8
02
1$
#7600000
b11101110 %
b11101110 *
b111010101010 "
b111010101010 )
#8000000
0$
#8500000
12
b11 +
b11111010 1
1$
#9000000
0$
#9500000
b111010101010 /
b11101110 0
b11101110 9
b111010101010 8
02
1$
#9600000
b11111110 %
b11111110 *
b111110101110 "
b111110101110 )
#10000000
b10111011 %
b10111011 *
b111010101000 "
b111010101000 )
0$
#10500000
12
b11101110 1
1$
#11000000
0$
#11200000
bx %
bx *
b11011001010 "
b11011001010 )
0(
1&
#11500000
b1 +
1$
#12000000
0$
#12500000
b11011001010 /
b11011001010 7
1-
1$
#13000000
0$
#13500000
1$
#13700000
b101100101010 "
b101100101010 )
#14000000
0$
#14500000
b11101010 !
b11101010 ,
0-
1$
#15000000
0$
#15500000
b10 +
1$
#15700000
b101110111010 "
b101110111010 )
#16000000
0$
#16500000
b101110111010 /
b101110111010 7
1-
1$
#17000000
0$
#17500000
1$
#17700000
b111010101010 "
b111010101010 )
#18000000
0$
#18500000
b11111010 !
b11111010 ,
0-
1$
#19000000
0$
#19500000
b11 +
1$
#19700000
b111110101110 "
b111110101110 )
#20000000
0$
#20500000
b111110101110 /
b111110101110 7
1-
1$
#21000000
0$
#21500000
1$
#22000000
0$
#22200000
b111010101000 "
b111010101000 )
#22500000
bx !
bx ,
0-
1$
#23000000
0$
#23200000
b101100101010 "
b101100101010 )
#23500000
b10 +
1$
#24000000
0$
#24200000
b111110101101 "
b111110101101 )
#24210000
1.
1#
#24500000
b111110101101 /
b111110101101 7
b0 !
b0 ,
1-
1$
#25000000
0$
#25500000
b11 +
1$
#26000000
0$
#26210000
b11111110 %
b11111110 *
b111110101110 "
b111110101110 )
1(
0&
#26500000
0.
bx !
bx ,
1$
#27000000
0$
#27500000
b0 !
b0 ,
1$
#28000000
0$
#28210000
b10111010 %
b10111010 *
b111010101000 "
b111010101000 )
#28500000
1$
#29000000
0$
#29500000
1$
#30000000
0$
#30210000
b111010101010 "
b111010101010 )
0(
1&
#30500000
1$
#31000000
0$
#31500000
1$
#32000000
0$
#32210000
b111110101110 "
b111110101110 )
#32220000
0#
#32320000
b10101010 %
b10101010 *
b1010101010 "
b1010101010 )
1(
0&
#32500000
b1010101010 /
b10101010 0
b10101010 9
b1010101010 8
02
b0 +
1$
#32520000
b11101010 %
b11101010 *
b11011001010 "
b11011001010 )
#32770000
b10111010 %
b10111010 *
b101100101010 "
b101100101010 )
#32970000
b11111010 %
b11111010 *
b101110111010 "
b101110111010 )
#32980000
1.
1#
#33000000
0$
#33030000
0#
#33130000
b11101110 %
b11101110 *
b111010101010 "
b111010101010 )
#33330000
b11111110 %
b11111110 *
b111110101110 "
b111110101110 )
#33370000
b10111011 %
b10111011 *
b111010101000 "
b111010101000 )
#33490000
bx %
bx *
b11011001010 "
b11011001010 )
0(
1&
#33500000
b1 +
0.
b10101010 1
1$
#33740000
b101100101010 "
b101100101010 )
#33940000
b101110111010 "
b101110111010 )
#33950000
1.
1#
#34000000
0#
0$
#34200000
b111010101010 "
b111010101010 )
#34400000
b111110101110 "
b111110101110 )
#34500000
b111110101110 /
b111110101110 7
0-
1$
#34650000
r1.7 5
b111010101000 "
b111010101000 )
#35000000
0$
#35500000
b11 +
1$
#36000000
0$
#36500000
0.
bx !
bx ,
1$
#36650000
b10101010 %
b10101010 *
b11011001010 "
b11011001010 )
1(
0&
#37000000
0$
#37500000
b0 !
b0 ,
b1 +
1$
#38000000
0$
#38500000
1$
#39000000
0$
#39150000
b10111010 %
b10111010 *
b101100101010 "
b101100101010 )
#39500000
b10 +
1$
